[
    {
        "urls": [
           "### Sample_JSON_Object ###"
        ],
        "waitForSelector": null,
        "imageSelectors": [
            "#mainImage",
            ".productImage"
        ],
        "titleSelectors": [
           "productTitle",
           "prductHeading"
        ],
        "priceSelectors" : [
            "#retailPrice",
            "#salePrice"
        ]
    },
    {
        "urls": [
           "alibaba.com"
        ],
        "waitForSelector": null,
        "imageSelectors": [
            ".pic"
        ],
        "titleSelectors": [
           ".ma-title"
        ]
    },
    {
        "urls": [
           "aliexpress.com"
        ],
        "waitForSelector": null,
        "imageSelectors": [
            ".magnifier-image"
        ],
        "titleSelectors": [
           ".product-title"
        ]
    },
    {
       "urls": [
          "amazon."
       ],
       "waitForSelector": null,
       "imageSelectors": [
          "#landingImage"
       ],
       "titleSelectors": [
          "#productTitle"
        ],
        "priceSelectors" : [
            "#priceblock_ourprice",
            "#price_inside_buybox",
            "#priceblock_dealprice"
        ]
    },
    {
       "urls": [
          ".ebay."
       ],
       "waitForSelector": null,
       "imageSelectors": [
          "#icImg"
       ],
       "titleSelectors": [
          "#itemTitle"
       ],
       "priceSelectors" : [
           "#prcIsum"
       ]
    }
 ]
 
 